:1078000011E0A0E0B1E0E8E4FFE702C005900D92CE
:10781000A431B107D9F721E0A4E1B1E001C01D9284
:10782000A434B207E1F7CDB7DEB7CC50D140DEBF0C
:10783000CDBF1124F4B614BE85E080938100569A22
:10784000219AF1FC8CC08F2D8D7009F488C08CE0DA
:10785000FDD2D3D290E813ECC12EDD24DA9401E0FE
:107860001FEF190F59F492509F3378F54E981AE094
:10787000B8EDEB2EFF24FA9401E00FC04C9BF3CF40
:10788000D0928500C092840006BBB09BFECFB5D2DB
:10789000103408F44E9A912FE3CFF0928500E092D5
:1078A000840006BBB09BFECF199AA7D21150A9F74E
:1078B00083E1E0E0F1E0DE01119601900D928A95FE
:1078C000E1F7CE01019613D3FFCFA1E3CA2EA1E0C9
:1078D000DA2E00EE13E0C80121D3D6018D936D019D
:1078E0000F5F1F4F033FB3E01B07A9F760E081E381
:1078F00091E0E5D2623B7B468C46944571F56FE0A2
:1079000081E391E0DCD26F3F7F4F8F4F9F4F29F58E
:1079100080913501813029F062E070E08FEF90E0D6
:1079200012C080913F01E1E3F1E090E09F01225F0E
:107930003191930F2E13FCCF9195891749F063E095
:1079400070E08FEF90E0CCD281E391E0D0D205C01F
:10795000809136018A3009F4B8C08F2D8CD282E034
:107960008093C00088E18093C10086E08093C200CC
:1079700089E18093C4008EE069D212E058EDE52ED3
:10798000FF24FA9401E0F0928500E092840006BBA7
:10799000B09BFECF4E9A31D2113011F011E0F3CFEF
:1079A00000E010E023E0F22EEE24E39435E0D32E45
:1079B00041E1C42E40D28134A9F43DD2C75FDE4FED
:1079C0008883C950D14048D2C75FDE4F8881C950F3
:1079D000D140823811F0813811F482E001C083E097
:1079E00023D270C0823411F484E103C0853419F4C9
:1079F00085E03AD267C0853541F41DD2082F1BD2ED
:107A000010E0182B000F111F5CC0863521F484E0B4
:107A10002BD280E0E5CF843609F036C00CD20BD2F1
:107A2000B82E09D2A82E812C9924939404D2D40183
:107A30008D934D01BA12FACF0FD2B5E4AB1201C04B
:107A4000FFCFF801F7BEE89507B600FCFDCFA8010F
:107A5000A0E0B1E02C911296CD010197FC0180814C
:107A600030E0382BFA010901E7BEE89511244E5F9A
:107A70005F4FBA12EFCFF801D7BEE89507B600FC0A
:107A8000FDCFC7BEE8951EC0843771F4D4D1D3D1E1
:107A9000B82ED1D1E1D14801F40185914F01C4D173
:107AA000BA94B110F9CF0EC0853739F4D5D18EE133
:107AB000BBD185E9B9D18FE093CF813511F488E04E
:107AC000C5D1CAD180E1B0D175CF66E081E391E044
:107AD000F6D16B017C0193D128988BEAD2D1289AF8
:107AE00028988FE9CED180E0CCD1082F10E0102F5C
:107AF000002780E0C6D1289A082B00331F4E49F09A
:107B000061E070E08FEF9AE0EBD181E391E0EFD19B
:107B100073C10CE111E0E5E1BE2EB00EC701B60164
:107B2000B7D1D8018D938D01BFEFCB1ADB0AEB0AD9
:107B3000FB0AB012F3CF60E08CE191E0C0D1623B70
:107B40007B468C46944549F062E070E08FEF9AE006
:107B5000C7D181E391E0CBD1E7C061E18CE191E055
:107B6000AED16B017C016093180170931901809371
:107B70001A0190931B016DE08CE191E0A0D1CB5FE5
:107B8000DE4F688379838A839B83C550D14060939D
:107B90001401709315018093160190931701F1E081
:107BA000CF16F8E7DF06E104F10410F4C0FE09C0C7
:107BB00063E070E08FEF9AE093D181E391E097D199
:107BC000B3C065E08CE191E07AD1709020018E0124
:107BD0000F5F1F4F20E031E0D801F9011D9231976E
:107BE000E9F71B012C01812C912C5401602E8C147F
:107BF0009D04AE04BF0408F098C0D501C401870DF0
:107C0000911DA11DB11DC816D906EA06FB0610F488
:107C10007C2C7818CB5FDE4F288139814A815B81CB
:107C2000C550D140280D391D4A1D5B1DCF5FDE4F69
:107C300019830883C150D140CD5FDE4F198308837B
:107C4000C350D140CD5FDE4F8881C350D140801BEF
:107C50008715E8F5CA01B901C75FDE4F2883C9500F
:107C6000D140C65FDE4F3883CA50D140C55FDE4F7A
:107C70004883CB50D140C45FDE4F5883CC50D140B5
:107C800007D1CD5FDE4FA881B981C350D1408D931C
:107C9000CD5FDE4FB983A883C350D140C75FDE4FAD
:107CA0002881C950D140C65FDE4F3881CA50D140CB
:107CB000C55FDE4F4881CB50D140C45FDE4F588155
:107CC000CC50D1402F5F3F4F4F4F5F4FBBCFC201D2
:107CD000B101DED090E0272D260DCF5FDE4FE88189
:107CE000F981C150D1403191CF5FDE4FF983E883F4
:107CF000C150D140930F2E13F0CFFFEF2F1A3F0A40
:107D00004F0A5F0A9195891749F064E070E08FEFA0
:107D10009AE0E6D081E391E0EAD006C06ED0870C0D
:107D2000911CA11CB11C63CF66C0F999FECF00E085
:107D300010E0BB24B39463E0A62E75E0972E680193
:107D4000E12CF12C409018015090190160901A011B
:107D500070901B01C414D504E604F70408F040C079
:107D60008091140190911501A0911601B091170115
:107D7000C80ED91EEA1EFB1EC701B60189D0882E87
:107D8000C701B6016F5F7F4F8F4F9F4F81D0282D66
:107D900030E0A901582BF8010A01B7BEE89511247B
:107DA0007801F2E0EF0EF11CC7018F779927892B3C
:107DB00041F0C701A0E0B0E084159505A605B70520
:107DC00069F4F801A7BEE89507B600FCFDCFF801FD
:107DD00097BEE89507B600FCFDCF0FD08701AFCF67
:107DE00081E187BFE89561E070E080E09AE078D0BB
:107DF00081E391E07CD0FFCFFFCFA895089584B1B7
:107E0000886284B9209A289A8CB580658CBD8CB51F
:107E10008F7D8CBD8CB5837F8CBD8CB58C7F8CBDEC
:107E20008DB581608DBD08959091C00095FFFCCF08
:107E30008093C60008958091C00087FFFCCF809199
:107E4000C00084FFDADF8091C6000895E0E6F0E02C
:107E500098E1908380830895EEDF803219F088E006
:107E6000F5DFFFCF84E1E0CFCF93C82FE4DFC1502F
:107E7000E9F7CF91F1CF282E80E0E8DFE0E0FF279F
:107E800009948EBD00000DB407FEFDCF8EB5089598
:107E9000CF92DF92EF92FF926B017C01289883E0F2
:107EA000F0DF8E2DEEDF8D2DECDF8C2DEADF80E014
:107EB000E8DF289AFF90EF90DF90CF900895FC01C3
:107EC000E60FF11D63812081862F90E0A0E0B0E0F5
:107ED000B22B2181A22B2281BC01CD01722B0895EE
:107EE000E1E3F1E09787808B718B628B08950F93AC
:107EF0001F93CF93DF938C01C0E0D0E0F801619134
:107F00008F01CE0180529C4F11D02196C331D105F3
:107F1000A9F7DF91CF911F910F910895F999FECFA5
:107F200092BD81BDF89A992780B50895262FF999B9
:107F3000FECF1FBA92BD81BD20BD0FB6F894FA9A4C
:087F4000F99A0FBE01960895A5
:107F4800546C6BB2010A000700000000000011FF2A
:047F5800FFFFFF0028
:027FFE0002027D
:040000030000780081
:00000001FF
